R mini camp: Reshape2 and Tidyr
…
pew %>% gather(income, frequency, -religion)
#> # A tibble: 180 × 3
#>                   religion income frequency
#>                      <chr>  <chr>     <int>
#>  1                Agnostic  <$10k        27
#>  2                 Atheist  <$10k        12
#>  3                Buddhist  <$10k        27
#>  4                Catholic  <$10k       418
#>  5      Don’t know/refused  <$10k        15
#>  6        Evangelical Prot  <$10k       575
#>  7                   Hindu  <$10k         1
#>  8 Historically Black Prot  <$10k       228
#>  9       Jehovah's Witness  <$10k        20
#> 10                  Jewish  <$10k        19
#> # ... with 170 more rows
…
